<svg xmlns="http://www.w3.org/2000/svg" width="50" height="50" viewBox="0 0 50 50">
    <path fill="#FFF" fill-rule="nonzero" stroke="#FFF" stroke-width=".3" d="M20.5 22h5c.3 0 .5-.2.5-.5v-5c0-.3-.2-.5-.5-.5h-5c-.3 0-.5.2-.5.5v5c0 .3.2.5.5.5zm.5-5h4v4h-4v-4zm13 2h-6v-1h6v1zm0 3h-6v-1h6v1zm0 3H20v-1h14v1zm0 3H20v-1h14v1zm0 3H20v-1h14v1zm2.3-18H17.7c-.4 0-.7.3-.7.7V16h-3.2c-.5 0-.8.3-.8.8v19.5c0 .4.3.7.8.7h22.5c.4 0 .7-.3.7-.7V13.8c0-.5-.3-.8-.7-.8zM36 36H14V17h3v18h1V14h18v22z"/>
</svg>
